id,place,x,y
894089,Sippar,44.253809,33.059195
912950,Abu Salabikh,45.054494428,32.2526542346
874621,Ninua,43.151937,36.358684
912855,Girsu,46.175712,31.576909
893945,Aššur,43.252949,35.526848
874735,Nagar,41.0703913,36.6687803
149576487,Akhetaten,30.899569,27.645956
959120263,Lagaš,46.40836,31.420485
825227,Argištiḫinili,44.04,40.15
171585551,Tell Agrab,44.8742850623,33.3391861956
29492,Assyria,43.2,36.2
237391810,Rusahinili Eidurukai,43.2485,38.661167
771224406,Bad-Tibira,46,31.766667
893964,Borsippa,44.344757,32.390721
912897,Larsa,45.853611,31.285833
392373882,Sippar Amnanum,44.298871,33.099559
90720956,Ešnunna,44.7247598,33.4873408
357565832,Nerebtum,44.583333,33.3
44626252,Umma,45.9,31.65
48012424,Egypt,30.802498,26.820553
339709658,Tell al-Ubaid,46.030628,30.9723062
138636347,Diqdiqqah,46.1186295748,30.9745476163
821129014,Šaduppum,44.466548,33.309745
359215729,Puzriš-Dagan,45.29101,32.06236
912816,Babylonia,44.5,32.5
532748466,Atmannu,43.681395,35.38201
511225,Daskyleion,28.062536,40.138708
874741,Tell Hammam,39.026003,36.521038
874316,Altıntepe,39.6479773,39.6978948
874771,Van Kalesi,43.38,38.494166
379202545,Rusahinili Qilbanikai,43.4038002,38.5205001
874362,Edremit,43.276591,38.422069
874529,Patnos,42.866666,39.233333
705365883,Başkale,44.0180863,38.0444545
912868,Isin,45.267191,31.920259
894019,Kalḫu,43.3275,36.099167
283602441,Ḫattuša,34.615278,40.019722
30774368,Tarbisu,43.077311,36.4087884
677382294,Ḫarbe,39.498189,36.6465219
658399,Ḫadatu,38.407778,36.848889
237391811,Šibaniba,43.316666,36.433326
874732,Kaḫat,41.1270847952,36.7390002415
668295,Ugarit,35.780703,35.610222
413309738,Sur Jarʾa,42.20561,34.311256
11236765,Ḫursagkalama,44.5993371,32.5407858
893936,ʾAna,41.978974,34.469451
912845,Eridu,45.96982,30.821525
894178,Seleucia,44.520378,33.094346
874458,Dur-Šarrukin,43.228261,36.510016
814739,Tema,38.549681,27.622821
658427,Ḫarran,39.031184,36.864682
715980704,Maškan-šapir,45.3067537,32.2285887
379400932,Kabnak,48.3289663161,32.0807748717
929709014,Kavuncu,43.4767586,38.5124956
903013,Der,45.947885,33.109452
2970016,Nahr el-Kelb,35.598922,33.956087
955792756,Dohok,42.918763,36.858746
413309737,Negub Tunnel,43.405813,36.022095
490043590,Tutub,44.55662,33.354728
894158,Terqa,40.568065,34.923106
413309735,el-Ghab,36.356,35.587
893987,Dilbat,44.466967,32.295211
430344980,Kār-Tukultī-Ninurta,43.268593,35.496419
914118846,Tigris Tunnel,40.5475,38.529722
894027,Kilizu,43.751839,36.105774
191400484,Luristan,48.4,33.6
912909,Tell Zurghul,46.714373,31.403458
921099766,Zabalam,45.8777935,31.7434653
668216,Gubla,35.645732,34.119026
201144661,Turlu Höyük,37.069119,37.758916
863822,Teišebaini,44.4502581,40.1551476
825333700,Sardurihinili,43.459885978,38.3526615055
903021,Ecbatana,48.512209,34.799294
922693,Pasargadae,53.1684426,30.1930914
903032,Elvend,48.43661,34.759872
776181,El-Khargeh,30.553476,25.438054
922695,Pārśa,52.889437,29.9353403333
727088,Suez,31.5110853352,30.5723823112
922698,Persia,51.5,30.5
260976011,Tell Mozan (Urkesh),40.9977581282,37.0578401483
309866128,Alalakh,36.3834638406,36.2384508975
687838,Ashdod,34.652079,31.765635
359792983,Bavian,43.420619,36.76194
658465,Carchemish,38.013529,36.829505
293088342,Dunnu-ša-Uzībi,40.7499196,37.816986
779967430,Hazor,35.568137176,33.017462128
687839,Ašqelon,34.545947,31.6659785
964671598,Šapinuwa,35.25,40.266667
457651161,El-Qitar,38.1807242179,36.3840362544
912957,Tell Jidr,45.725183,31.815617
720628458,Tell el-Ḥesi,34.7307012,31.5471245
894082,Sūr-marrati,43.876735,34.200116
894042,Mê-Turan,45.095015,34.225642
894003,Ḫaradum,41.6,34.433333
893991,Dūr-Katlimmu,40.740208,35.643628
356369838,Qatara,42.4500569089,36.2569908298
874723,Apqu-ša-Adad,42.597299,36.429708
86623849,Selaʾ,35.726658,30.750217
628923,Kaniš,35.63486,38.85093
874754,Ṭabatum,40.78481,36.364184
733910291,Jemdet Nasr,44.7796331942,32.7182104498
413309736,Ben Shemen,34.9249,31.954
249999668,Diniktum,44.482146,33.29375
961961,Sar-i-pul-i-Zohāb,65.927298,36.225626
912952,Tell al-Dibaʾi,45.516946,31.6932
649834357,Mila Mergi,42.9135,37.0058333
913163220,Unqi,36.376389,36.2475
189103682,Kibbutz Hamaʿapil,34.983333,32.377778
874418,Kurkh,40.539708,37.825989
7082320,Babil,42.027333,37.18775
90032637,Imgur-Enlil,43.414221,36.221946
874688,Šadikanni,40.720582,36.208061
874728,Tell al-Hawa,42.301984,36.747619
193878353,Kizkapanlı,37.293138,37.37502
528477900,Sabaʾa,40.65609,36.08196
914118847,Pāra,41.491003,36.371137
658410,Til Barsip,38.1191944,36.6749623
874631,Lake Urmia,45.518417,37.086953
505388706,Beisan,43.1044,36.4087
741318296,Tulul al-Lak,43.263445,36.298266
471828778,Judi Dagh,42.3288972,37.3923021
248782116,Jerwan,43.393475,36.669779
894099,Tikrit,43.698871,34.581814
874341,Arbail,44.00924,36.191265
982176368,Padakku,40.467002,25.97861
945906723,Dawali,41.992053,34.453904
223856812,Glaiʾa,42.211404,34.302925
582993625,Tell Biʾa (Tuttul),39.0472662969,35.9580498787
192555966,Samʾal,36.678477,37.102208
1001932,Syria,37.051252,36.150945
893988,Dur-Kurigalzu,44.201763,33.354401
359792984,Wadi Bastura Tunnel,44.1158443,36.3516938
842949950,Kenk Boǧazı,37.8543333,37.2416667
658381,Antakya,36.137399,36.182294
809004346,Brissa,36.310844,34.432209
874588,Mardin,40.739222,37.319049
708232007,Yoncali,42.187778,39.128611
903102,Kermanshah,47.5,34.5
707556,Larnaka,33.633337,34.916662
668200,Tunip,36.4,35.2833333
629040,Arslantepe (Melidu),38.382217,38.361152
155838204,Tang-i Var,46.623466,35.0123977
858969850,Qalʾeh-i Imam,46.1758797,35.4913372
678370,Sāmerīna,35.190436,32.276529
894127,Tell Baradan,45.063962,34.238641
291498921,Aliler,43.4991276,38.8439399
692712721,Kars,43.1040302701,40.6013491238
863795,Garni,44.7276745333,40.1146976667
904615255,Gazandži,44.026552,40.0067314
887415955,Hamam,41.2727638,39.9063215
87556001,Habıbuşağı,38.793772,38.433449
280340257,Džanfida,44.0245673778,40.0442003093
874294,Bingöl Dağ,41.5,39.5
874396,Bastam,44.893607,38.891105
929634889,Zvartnots,44.336575,40.159714
356811079,Erek Dağ,43.4938043,38.4537563
874438,Bitlis,42.116666,38.4
903002,Behistun,47.454353,34.393528
207133,Gherla,23.899912,47.019833
922685,Naqš-i-Rustam,52.87465819,29.9887346875
767486703,Zawiya,42.175323,34.292103
874492,Pasinler,41.6662835,39.984743
296101142,Hillah,44.433333,32.483333
893990,Dura-Europus,40.7300288605,34.747546619
804216207,Acem Höyük,33.833806,38.4097631
628979,Firakdin,35.623396,38.253654
582911,Shir as-Sanam,36.26839,34.52795
293088343,Tell Sabi Abyad,39.09153,36.505714
762762282,Larak,45.6602857173,32.3124558594
413309734,Kalmakarra Cave,47.3796339,33.0010272
572048102,Waššukanni,40.0709816,36.8425922
912953,Kissik,46.3341009,30.8348232
912901,Marad,44.78567,32.070556
420860522,Zalu-Ab,46.905556,33.026389
945906724,Judeideh,42.028552,34.3887
894008,Idu,44.697222,35.878056
703315102,Ekalte,38.1299921,36.2194381
532748467,Tell Bazmusian,44.924366,36.161481
570186,Kastri island,22.981207,36.267241
26356565,Megiddo,35.185167,32.579667
787747618,Adab,45.628335,31.951644
893951,Babylon,44.422236,32.543395
912986,Uruk,45.638752,31.32446
326150788,Šuruppak,45.5097359,31.7778493
894054,Nuzi,44.2549396934,35.3698975688
912936,Susa,48.257787,32.189217
894028,Kiš,44.585271,32.551977
286681704,Mari,40.889225,34.550398
869702586,Ebla,36.7983658027,35.7990446787
912985,Ur,46.104748,30.96158
912910,Nippur,45.230832,32.126944
249509021,Huzirina,38.9061,37.05
279984092,Emar,38.1109976469,35.9870203108
912837,Dilmun,49.2147584551,27.7606274393
811827554,Kišesim,48.5924864,33.3322314
111343632,Dūr-Bēl-Harrān-bēlī-uṣur,42.1622211,36.2145244
223856813,Šubat-Enlil,41.505096,36.958877
